{
	"info": {
		"_postman_id": "0d58f8bd-4cdb-4fb5-b125-1c1df47643d0",
		"name": "Array Parser",
		"schema": "https://schema.getpostman.com/json/collection/v2.1.0/collection.json"
	},
	"item": [
		{
			"name": "Home",
			"request": {
				"method": "GET",
				"header": [],
				"url": {
					"raw": "{{Localhost}}/",
					"host": [
						"{{Localhost}}"
					],
					"path": [
						""
					]
				}
			},
			"response": []
		},
		{
			"name": "Parse array",
			"request": {
				"method": "POST",
				"header": [],
				"body": {
					"mode": "urlencoded",
					"urlencoded": [
						{
							"key": "input",
							"value": "[23, 45, gb, [56, yz, [bz, ac ], 34], 98, 56]",
							"type": "text"
						}
					]
				},
				"url": {
					"raw": "{{Localhost}}/array",
					"host": [
						"{{Localhost}}"
					],
					"path": [
						"array"
					]
				}
			},
			"response": []
		},
		{
			"name": "Latest parsings",
			"request": {
				"method": "GET",
				"header": [],
				"url": {
					"raw": "{{Localhost}}/array",
					"host": [
						"{{Localhost}}"
					],
					"path": [
						"array"
					]
				}
			},
			"response": []
		}
	],
	"variable": [
		{
			"key": "Localhost",
			"value": "http://localhost:3000"
		}
	]
}